{
  "latestVersion": "2.0.0",
  "latestVersionCode":"2",
  "url": "https://play.google.com/store/apps/details?id=com.titan.titanexpress",
  "releaseNotes": [
        "- Módulo de palabras <br/>",
        "- Módulo de acerca "
      ]
}

